<svg id="Component_14_29" data-name="Component 14 – 29" xmlns="http://www.w3.org/2000/svg" width="33" height="33" viewBox="0 0 33 33">
  <path id="Path_56" data-name="Path 56" d="M0,0H33V33H0Z" fill="none"/>
  <path id="Path_57" data-name="Path 57" d="M9.981,14.921H29v3.157H9.981l8.381,8.467-2.209,2.232L4,16.5,16.153,4.222l2.209,2.232Z" fill="#fff"/>
</svg>
