<svg id="Component_2_19" data-name="Component 2 – 19" xmlns="http://www.w3.org/2000/svg" width="27" height="27" viewBox="0 0 27 27">
  <path id="Path_12" data-name="Path 12" d="M0,0H27V27H0Z" fill="none"/>
  <path id="Path_13" data-name="Path 13" d="M25,22.512H2V20.233H3.15V12.291a10.35,10.35,0,0,1,20.7,0v7.941H25ZM5.45,20.233h16.1V12.291a8.05,8.05,0,0,0-16.1,0Zm5.175,3.419h5.75a2.875,2.875,0,0,1-5.75,0Z" transform="translate(0 0)" fill="#fff"/>
</svg>
