<svg id="Component_13_2" data-name="Component 13 – 2" xmlns="http://www.w3.org/2000/svg" width="26" height="26" viewBox="0 0 26 26">
  <path id="Path_33" data-name="Path 33" d="M0,0H26V26H0Z" fill="none"/>
  <path id="Path_34" data-name="Path 34" d="M13,24A11,11,0,1,1,24,13,11,11,0,0,1,13,24ZM16.85,9.15l-5.5,2.2-2.2,5.5,5.5-2.2Z" fill="#fff"/>
</svg>
