<svg xmlns="http://www.w3.org/2000/svg" xmlns:xlink="http://www.w3.org/1999/xlink" width="24" height="24" viewBox="0 0 24 24">
  <defs>
    <clipPath id="clip-path">
      <rect id="Rectangle_120" data-name="Rectangle 120" width="24" height="24" transform="translate(21 706)" fill="#fff" stroke="#fff" stroke-width="0.1"/>
    </clipPath>
  </defs>
  <g id="Mask_Group_27" data-name="Mask Group 27" transform="translate(-21 -706)" clip-path="url(#clip-path)">
    <g id="dumbbell" transform="translate(21 706)">
      <g id="Group_192" data-name="Group 192">
        <g id="Group_191" data-name="Group 191">
          <g id="Path_125" data-name="Path 125" fill="#fff">
            <path d="M 14.70967578887939 24.05000114440918 C 13.82831573486328 24.05000114440918 13.11128616333008 23.33297157287598 13.11128616333008 22.45161247253418 L 13.11128616333008 19.01774215698242 L 7.017745971679688 19.01774215698242 L 7.017745971679688 22.45161247253418 C 7.017745971679688 23.33297157287598 6.300715923309326 24.05000114440918 5.419355869293213 24.05000114440918 C 4.537996292114258 24.05000114440918 3.820966005325317 23.33297157287598 3.820966005325317 22.45161247253418 L 3.820966005325317 22.30924987792969 C 3.602646589279175 22.43536758422852 3.354161024093628 22.50161170959473 3.096776008605957 22.50161170959473 C 2.215415954589844 22.50161170959473 1.498386025428772 21.78458213806152 1.498386025428772 20.90322113037109 L 1.498386025428772 19.01774215698242 L 0.3870960772037506 19.01774215698242 C 0.1256560683250427 19.01774215698242 -0.05000393092632294 18.84208106994629 -0.05000393092632294 18.58064270019531 L -0.05000393092632294 17.03226089477539 C -0.05000393092632294 16.77082252502441 0.1256560683250427 16.59516143798828 0.3870960772037506 16.59516143798828 L 1.498386025428772 16.59516143798828 L 1.498386025428772 14.70968151092529 C 1.498386025428772 13.82832145690918 2.215415954589844 13.11129188537598 3.096776008605957 13.11129188537598 C 3.354161024093628 13.11129188537598 3.602646589279175 13.17753601074219 3.820966005325317 13.30365371704102 L 3.820966005325317 13.16129207611084 C 3.820966005325317 12.27993202209473 4.537996292114258 11.56290149688721 5.419355869293213 11.56290149688721 C 6.300715923309326 11.56290149688721 7.017745971679688 12.27993202209473 7.017745971679688 13.16129207611084 L 7.017745971679688 16.59516143798828 L 13.11128616333008 16.59516143798828 L 13.11128616333008 13.16129207611084 C 13.11128616333008 12.27993202209473 13.82831573486328 11.56290149688721 14.70967578887939 11.56290149688721 C 15.59103584289551 11.56290149688721 16.30806541442871 12.27993202209473 16.30806541442871 13.16129207611084 L 16.30806541442871 13.30365371704102 C 16.52638626098633 13.17753601074219 16.77487182617188 13.11129188537598 17.03225517272949 13.11129188537598 C 17.91361618041992 13.11129188537598 18.63064575195313 13.82832145690918 18.63064575195313 14.70968151092529 L 18.63064575195313 16.59516143798828 L 19.74193572998047 16.59516143798828 C 20.00337600708008 16.59516143798828 20.17903518676758 16.77082252502441 20.17903518676758 17.03226089477539 L 20.17903518676758 18.58064270019531 C 20.17903518676758 18.84208106994629 20.00337600708008 19.01774215698242 19.74193572998047 19.01774215698242 L 18.63064575195313 19.01774215698242 L 18.63064575195313 20.90322113037109 C 18.63064575195313 21.78458213806152 17.91361618041992 22.50161170959473 17.03225517272949 22.50161170959473 C 16.77487182617188 22.50161170959473 16.52638626098633 22.43536758422852 16.30806541442871 22.30924987792969 L 16.30806541442871 22.45161247253418 C 16.30806541442871 23.33297157287598 15.59103584289551 24.05000114440918 14.70967578887939 24.05000114440918 Z M 14.70967578887939 12.43709182739258 C 14.31035614013672 12.43709182739258 13.98548603057861 12.76196193695068 13.98548603057861 13.16129207611084 L 13.98548603057861 22.45161247253418 C 13.98548603057861 22.85093116760254 14.31035614013672 23.17580223083496 14.70967578887939 23.17580223083496 C 15.10899639129639 23.17580223083496 15.43386650085449 22.85093116760254 15.43386650085449 22.45161247253418 L 15.43386650085449 13.16129207611084 C 15.43386650085449 12.76196193695068 15.10899639129639 12.43709182739258 14.70967578887939 12.43709182739258 Z M 5.419355869293213 12.43709182739258 C 5.020036220550537 12.43709182739258 4.695166110992432 12.76196193695068 4.695166110992432 13.16129207611084 L 4.695166110992432 22.45161247253418 C 4.695166110992432 22.85093116760254 5.020036220550537 23.17580223083496 5.419355869293213 23.17580223083496 C 5.818675994873047 23.17580223083496 6.143546104431152 22.85093116760254 6.143546104431152 22.45161247253418 L 6.143546104431152 13.16129207611084 C 6.143546104431152 12.76196193695068 5.818675994873047 12.43709182739258 5.419355869293213 12.43709182739258 Z M 17.03225517272949 13.98548221588135 C 16.63293647766113 13.98548221588135 16.30806541442871 14.31035137176514 16.30806541442871 14.70968151092529 L 16.30806541442871 20.90322113037109 C 16.30806541442871 21.30255126953125 16.63293647766113 21.62742233276367 17.03225517272949 21.62742233276367 C 17.43158531188965 21.62742233276367 17.75645637512207 21.30255126953125 17.75645637512207 20.90322113037109 L 17.75645637512207 14.70968151092529 C 17.75645637512207 14.31035137176514 17.43158531188965 13.98548221588135 17.03225517272949 13.98548221588135 Z M 3.096776008605957 13.98548221588135 C 2.69744610786438 13.98548221588135 2.372575998306274 14.31035137176514 2.372575998306274 14.70968151092529 L 2.372575998306274 20.90322113037109 C 2.372575998306274 21.30255126953125 2.69744610786438 21.62742233276367 3.096776008605957 21.62742233276367 C 3.496096134185791 21.62742233276367 3.820966005325317 21.30255126953125 3.820966005325317 20.90322113037109 L 3.820966005325317 14.70968151092529 C 3.820966005325317 14.31035137176514 3.496096134185791 13.98548221588135 3.096776008605957 13.98548221588135 Z M 18.63064575195313 18.14355087280273 L 19.30483627319336 18.14355087280273 L 19.30483627319336 17.46935272216797 L 18.63064575195313 17.46935272216797 L 18.63064575195313 18.14355087280273 Z M 7.017745971679688 18.14355087280273 L 13.11128616333008 18.14355087280273 L 13.11128616333008 17.46935272216797 L 7.017745971679688 17.46935272216797 L 7.017745971679688 18.14355087280273 Z M 0.8241960406303406 18.14355087280273 L 1.498386025428772 18.14355087280273 L 1.498386025428772 17.46935272216797 L 0.8241960406303406 17.46935272216797 L 0.8241960406303406 18.14355087280273 Z" stroke="none"/>
            <path d="M 5.419356346130371 11.61290168762207 C 4.567746162414551 11.61290168762207 3.870965957641602 12.3096809387207 3.870965957641602 13.16129112243652 L 3.870965957641602 13.39355087280273 C 3.638706207275391 13.23871231079102 3.367746353149414 13.16129112243652 3.096776962280273 13.16129112243652 C 2.245155334472656 13.16129112243652 1.548385620117188 13.85806274414063 1.548385620117188 14.70967102050781 L 1.548385620117188 16.64516258239746 L 0.3870964050292969 16.64516258239746 C 0.1548366546630859 16.64516258239746 -3.814697265625e-06 16.80000114440918 -3.814697265625e-06 17.03226089477539 L -3.814697265625e-06 18.58064270019531 C -3.814697265625e-06 18.81290245056152 0.1548366546630859 18.96774101257324 0.3870964050292969 18.96774101257324 L 1.548385620117188 18.96774101257324 L 1.548385620117188 20.90322113037109 C 1.548385620117188 21.75484085083008 2.245155334472656 22.45161056518555 3.096776962280273 22.45161056518555 C 3.367746353149414 22.45161056518555 3.638706207275391 22.37419128417969 3.870965957641602 22.21935272216797 L 3.870965957641602 22.45161056518555 C 3.870965957641602 23.30322265625 4.567746162414551 24.00000190734863 5.419356346130371 24.00000190734863 C 6.270966529846191 24.00000190734863 6.967745780944824 23.30322265625 6.967745780944824 22.45161056518555 L 6.967745780944824 18.96774101257324 L 13.16128540039063 18.96774101257324 L 13.16128540039063 22.45161056518555 C 13.16128540039063 23.30322265625 13.85806655883789 24.00000190734863 14.70967674255371 24.00000190734863 C 15.56128597259521 24.00000190734863 16.25806617736816 23.30322265625 16.25806617736816 22.45161056518555 L 16.25806617736816 22.21935272216797 C 16.49032592773438 22.37419128417969 16.76128578186035 22.45161056518555 17.03225708007813 22.45161056518555 C 17.88386535644531 22.45161056518555 18.58064651489258 21.75484085083008 18.58064651489258 20.90322113037109 L 18.58064651489258 18.96774101257324 L 19.74193572998047 18.96774101257324 C 19.97419548034668 18.96774101257324 20.12903594970703 18.81290245056152 20.12903594970703 18.58064270019531 L 20.12903594970703 17.03226089477539 C 20.12903594970703 16.80000114440918 19.97419548034668 16.64516258239746 19.74193572998047 16.64516258239746 L 18.58064651489258 16.64516258239746 L 18.58064651489258 14.70967102050781 C 18.58064651489258 13.85806274414063 17.88386535644531 13.16129112243652 17.03225708007813 13.16129112243652 C 16.76128578186035 13.16129112243652 16.49032592773438 13.23871231079102 16.25806617736816 13.39355087280273 L 16.25806617736816 13.16129112243652 C 16.25806617736816 12.3096809387207 15.56128597259521 11.61290168762207 14.70967674255371 11.61290168762207 C 13.85806655883789 11.61290168762207 13.16128540039063 12.3096809387207 13.16128540039063 13.16129112243652 L 13.16128540039063 16.64516258239746 L 6.967745780944824 16.64516258239746 L 6.967745780944824 13.16129112243652 C 6.967745780944824 12.3096809387207 6.270966529846191 11.61290168762207 5.419356346130371 11.61290168762207 M 5.419356346130371 23.22580146789551 C 4.993546485900879 23.22580146789551 4.645155906677246 22.87742233276367 4.645155906677246 22.45161056518555 L 4.645155906677246 13.16129112243652 C 4.645155906677246 12.73548126220703 4.993546485900879 12.38709259033203 5.419356346130371 12.38709259033203 C 5.845166206359863 12.38709259033203 6.193546295166016 12.73548126220703 6.193546295166016 13.16129112243652 L 6.193546295166016 22.45161056518555 C 6.193546295166016 22.87742233276367 5.845166206359863 23.22580146789551 5.419356346130371 23.22580146789551 M 14.70967674255371 23.22580146789551 C 14.2838659286499 23.22580146789551 13.93548583984375 22.87742233276367 13.93548583984375 22.45161056518555 L 13.93548583984375 13.16129112243652 C 13.93548583984375 12.73548126220703 14.2838659286499 12.38709259033203 14.70967674255371 12.38709259033203 C 15.1354866027832 12.38709259033203 15.48386573791504 12.73548126220703 15.48386573791504 13.16129112243652 L 15.48386573791504 22.45161056518555 C 15.48386573791504 22.87742233276367 15.1354866027832 23.22580146789551 14.70967674255371 23.22580146789551 M 3.096776962280273 21.67742156982422 C 2.670965194702148 21.67742156982422 2.322576522827148 21.32903289794922 2.322576522827148 20.90322113037109 L 2.322576522827148 14.70967102050781 C 2.322576522827148 14.28387260437012 2.670965194702148 13.93548202514648 3.096776962280273 13.93548202514648 C 3.522575378417969 13.93548202514648 3.870965957641602 14.28387260437012 3.870965957641602 14.70967102050781 L 3.870965957641602 20.90322113037109 C 3.870965957641602 21.32903289794922 3.522575378417969 21.67742156982422 3.096776962280273 21.67742156982422 M 17.03225708007813 21.67742156982422 C 16.6064453125 21.67742156982422 16.25806617736816 21.32903289794922 16.25806617736816 20.90322113037109 L 16.25806617736816 14.70967102050781 C 16.25806617736816 14.28387260437012 16.6064453125 13.93548202514648 17.03225708007813 13.93548202514648 C 17.45806503295898 13.93548202514648 17.80645561218262 14.28387260437012 17.80645561218262 14.70967102050781 L 17.80645561218262 20.90322113037109 C 17.80645561218262 21.32903289794922 17.45806503295898 21.67742156982422 17.03225708007813 21.67742156982422 M 1.548385620117188 18.19355201721191 L 0.7741966247558594 18.19355201721191 L 0.7741966247558594 17.41935157775879 L 1.548385620117188 17.41935157775879 L 1.548385620117188 18.19355201721191 M 13.16128540039063 18.19355201721191 L 6.967745780944824 18.19355201721191 L 6.967745780944824 17.41935157775879 L 13.16128540039063 17.41935157775879 L 13.16128540039063 18.19355201721191 M 19.35483551025391 18.19355201721191 L 18.58064651489258 18.19355201721191 L 18.58064651489258 17.41935157775879 L 19.35483551025391 17.41935157775879 L 19.35483551025391 18.19355201721191 M 5.419356346130371 11.51290130615234 C 6.328286170959473 11.51290130615234 7.067746162414551 12.25236129760742 7.067746162414551 13.16129112243652 L 7.067746162414551 16.54516220092773 L 13.06128597259521 16.54516220092773 L 13.06128597259521 13.16129112243652 C 13.06128597259521 12.25236129760742 13.80074596405029 11.51290130615234 14.70967674255371 11.51290130615234 C 15.61860656738281 11.51290130615234 16.35806655883789 12.25236129760742 16.35806655883789 13.16129112243652 L 16.35806655883789 13.21986770629883 C 16.56516265869141 13.1157054901123 16.79507446289063 13.06129264831543 17.03225708007813 13.06129264831543 C 17.94118499755859 13.06129264831543 18.6806468963623 13.80075263977051 18.6806468963623 14.70967102050781 L 18.6806468963623 16.54516220092773 L 19.74193572998047 16.54516220092773 C 20.02873611450195 16.54516220092773 20.22903633117676 16.74546241760254 20.22903633117676 17.03226089477539 L 20.22903633117676 18.58064270019531 C 20.22903633117676 18.86744117736816 20.02873611450195 19.06774139404297 19.74193572998047 19.06774139404297 L 18.6806468963623 19.06774139404297 L 18.6806468963623 20.90322113037109 C 18.6806468963623 21.81215286254883 17.94118499755859 22.55161285400391 17.03225708007813 22.55161285400391 C 16.79507446289063 22.55161285400391 16.56516265869141 22.4971981048584 16.35806655883789 22.39303588867188 L 16.35806655883789 22.45161056518555 C 16.35806655883789 23.36054229736328 15.61860656738281 24.10000228881836 14.70967674255371 24.10000228881836 C 13.80074596405029 24.10000228881836 13.06128597259521 23.36054229736328 13.06128597259521 22.45161056518555 L 13.06128597259521 19.06774139404297 L 7.067746162414551 19.06774139404297 L 7.067746162414551 22.45161056518555 C 7.067746162414551 23.36054229736328 6.328286170959473 24.10000228881836 5.419356346130371 24.10000228881836 C 4.51042652130127 24.10000228881836 3.770965576171875 23.36054229736328 3.770965576171875 22.45161056518555 L 3.770965576171875 22.39303588867188 C 3.563869476318359 22.4971981048584 3.333957672119141 22.55161285400391 3.096776962280273 22.55161285400391 C 2.187845230102539 22.55161285400391 1.448385238647461 21.81215286254883 1.448385238647461 20.90322113037109 L 1.448385238647461 19.06774139404297 L 0.3870964050292969 19.06774139404297 C 0.1002960205078125 19.06774139404297 -0.1000041961669922 18.86744117736816 -0.1000041961669922 18.58064270019531 L -0.1000041961669922 17.03226089477539 C -0.1000041961669922 16.74546241760254 0.1002960205078125 16.54516220092773 0.3870964050292969 16.54516220092773 L 1.448385238647461 16.54516220092773 L 1.448385238647461 14.70967102050781 C 1.448385238647461 13.80075263977051 2.187845230102539 13.06129264831543 3.096776962280273 13.06129264831543 C 3.333957672119141 13.06129264831543 3.563869476318359 13.1157054901123 3.770965576171875 13.21986770629883 L 3.770965576171875 13.16129112243652 C 3.770965576171875 12.25236129760742 4.51042652130127 11.51290130615234 5.419356346130371 11.51290130615234 Z M 5.419356346130371 23.12580108642578 C 5.791106224060059 23.12580108642578 6.093545913696289 22.82336044311523 6.093545913696289 22.45161056518555 L 6.093545913696289 13.16129112243652 C 6.093545913696289 12.78953170776367 5.791106224060059 12.48709106445313 5.419356346130371 12.48709106445313 C 5.047595977783203 12.48709106445313 4.745156288146973 12.78953170776367 4.745156288146973 13.16129112243652 L 4.745156288146973 22.45161056518555 C 4.745156288146973 22.82336044311523 5.047595977783203 23.12580108642578 5.419356346130371 23.12580108642578 Z M 14.70967674255371 23.12580108642578 C 15.0814266204834 23.12580108642578 15.38386535644531 22.82336044311523 15.38386535644531 22.45161056518555 L 15.38386535644531 13.16129112243652 C 15.38386535644531 12.78953170776367 15.0814266204834 12.48709106445313 14.70967674255371 12.48709106445313 C 14.33792591094971 12.48709106445313 14.03548622131348 12.78953170776367 14.03548622131348 13.16129112243652 L 14.03548622131348 22.45161056518555 C 14.03548622131348 22.82336044311523 14.33792591094971 23.12580108642578 14.70967674255371 23.12580108642578 Z M 3.096776962280273 21.57742309570313 C 3.468526840209961 21.57742309570313 3.770965576171875 21.27498245239258 3.770965576171875 20.90322113037109 L 3.770965576171875 14.70967102050781 C 3.770965576171875 14.33792114257813 3.468526840209961 14.03548240661621 3.096776962280273 14.03548240661621 C 2.725015640258789 14.03548240661621 2.422576904296875 14.33792114257813 2.422576904296875 14.70967102050781 L 2.422576904296875 20.90322113037109 C 2.422576904296875 21.27498245239258 2.725015640258789 21.57742309570313 3.096776962280273 21.57742309570313 Z M 17.03225708007813 21.57742309570313 C 17.40401649475098 21.57742309570313 17.70645523071289 21.27498245239258 17.70645523071289 20.90322113037109 L 17.70645523071289 14.70967102050781 C 17.70645523071289 14.33792114257813 17.40401649475098 14.03548240661621 17.03225708007813 14.03548240661621 C 16.6605052947998 14.03548240661621 16.35806655883789 14.33792114257813 16.35806655883789 14.70967102050781 L 16.35806655883789 20.90322113037109 C 16.35806655883789 21.27498245239258 16.6605052947998 21.57742309570313 17.03225708007813 21.57742309570313 Z M 1.448385238647461 17.51935195922852 L 0.8741970062255859 17.51935195922852 L 0.8741970062255859 18.09355163574219 L 1.448385238647461 18.09355163574219 L 1.448385238647461 17.51935195922852 Z M 13.06128597259521 17.51935195922852 L 7.067746162414551 17.51935195922852 L 7.067746162414551 18.09355163574219 L 13.06128597259521 18.09355163574219 L 13.06128597259521 17.51935195922852 Z M 19.25483703613281 17.51935195922852 L 18.6806468963623 17.51935195922852 L 18.6806468963623 18.09355163574219 L 19.25483703613281 18.09355163574219 L 19.25483703613281 17.51935195922852 Z" stroke="none" fill="#fff"/>
          </g>
        </g>
      </g>
      <g id="Group_194" data-name="Group 194">
        <g id="Group_193" data-name="Group 193">
          <g id="Path_126" data-name="Path 126" fill="#fff">
            <path d="M 18.58064460754395 12.43709850311279 C 17.69928359985352 12.43709850311279 16.98225402832031 11.72006797790527 16.98225402832031 10.83870792388916 L 16.98225402832031 7.404838085174561 L 10.88871383666992 7.404838085174561 L 10.88871383666992 10.83870792388916 C 10.88871383666992 11.72006797790527 10.17168426513672 12.43709850311279 9.290324211120605 12.43709850311279 C 8.408964157104492 12.43709850311279 7.691934108734131 11.72006797790527 7.691934108734131 10.83870792388916 L 7.691934108734131 10.69634628295898 C 7.473614692687988 10.82246398925781 7.225129127502441 10.88870811462402 6.967743873596191 10.88870811462402 C 6.086383819580078 10.88870811462402 5.369353771209717 10.17167854309082 5.369353771209717 9.290318489074707 L 5.369353771209717 7.404838085174561 L 4.258063793182373 7.404838085174561 C 3.996623992919922 7.404838085174561 3.820963859558105 7.229178428649902 3.820963859558105 6.967738151550293 L 3.820963859558105 5.419358253479004 C 3.820963859558105 5.157917976379395 3.996623992919922 4.982258319854736 4.258063793182373 4.982258319854736 L 5.369353771209717 4.982258319854736 L 5.369353771209717 3.096778154373169 C 5.369353771209717 2.215418100357056 6.086383819580078 1.498388171195984 6.967743873596191 1.498388171195984 C 7.225129127502441 1.498388171195984 7.473614692687988 1.564632058143616 7.691934108734131 1.690750002861023 L 7.691934108734131 1.548388242721558 C 7.691934108734131 0.6670281887054443 8.408964157104492 -0.05000179633498192 9.290324211120605 -0.05000179633498192 C 10.17168426513672 -0.05000179633498192 10.88871383666992 0.6670281887054443 10.88871383666992 1.548388242721558 L 10.88871383666992 4.982258319854736 L 16.98225402832031 4.982258319854736 L 16.98225402832031 1.548388242721558 C 16.98225402832031 0.6670281887054443 17.69928359985352 -0.05000179633498192 18.58064460754395 -0.05000179633498192 C 19.46200370788574 -0.05000179633498192 20.17903327941895 0.6670281887054443 20.17903327941895 1.548388242721558 L 20.17903327941895 1.690750002861023 C 20.39735412597656 1.564632058143616 20.64583969116211 1.498388171195984 20.90322303771973 1.498388171195984 C 21.78458404541016 1.498388171195984 22.50161361694336 2.215418100357056 22.50161361694336 3.096778154373169 L 22.50161361694336 4.982258319854736 L 23.6129035949707 4.982258319854736 C 23.87434387207031 4.982258319854736 24.05000305175781 5.157917976379395 24.05000305175781 5.419358253479004 L 24.05000305175781 6.967738151550293 C 24.05000305175781 7.229178428649902 23.87434387207031 7.404838085174561 23.6129035949707 7.404838085174561 L 22.50161361694336 7.404838085174561 L 22.50161361694336 9.290318489074707 C 22.50161361694336 10.17167854309082 21.78458404541016 10.88870811462402 20.90322303771973 10.88870811462402 C 20.64583969116211 10.88870811462402 20.39735412597656 10.82246398925781 20.17903327941895 10.69634628295898 L 20.17903327941895 10.83870792388916 C 20.17903327941895 11.72006797790527 19.46200370788574 12.43709850311279 18.58064460754395 12.43709850311279 Z M 18.58064460754395 0.8241981863975525 C 18.18132400512695 0.8241981863975525 17.85645484924316 1.149068236351013 17.85645484924316 1.548388242721558 L 17.85645484924316 10.83870792388916 C 17.85645484924316 11.23802852630615 18.18132400512695 11.56289863586426 18.58064460754395 11.56289863586426 C 18.9799633026123 11.56289863586426 19.30483436584473 11.23802852630615 19.30483436584473 10.83870792388916 L 19.30483436584473 1.548388242721558 C 19.30483436584473 1.149068236351013 18.9799633026123 0.8241981863975525 18.58064460754395 0.8241981863975525 Z M 9.290324211120605 0.8241981863975525 C 8.890994071960449 0.8241981863975525 8.566123962402344 1.149068236351013 8.566123962402344 1.548388242721558 L 8.566123962402344 10.83870792388916 C 8.566123962402344 11.23802852630615 8.890994071960449 11.56289863586426 9.290324211120605 11.56289863586426 C 9.689643859863281 11.56289863586426 10.01451396942139 11.23802852630615 10.01451396942139 10.83870792388916 L 10.01451396942139 1.548388242721558 C 10.01451396942139 1.149068236351013 9.689643859863281 0.8241981863975525 9.290324211120605 0.8241981863975525 Z M 20.90322303771973 2.372578144073486 C 20.50390434265137 2.372578144073486 20.17903327941895 2.697448253631592 20.17903327941895 3.096778154373169 L 20.17903327941895 9.290318489074707 C 20.17903327941895 9.689648628234863 20.50390434265137 10.01451778411865 20.90322303771973 10.01451778411865 C 21.30254364013672 10.01451778411865 21.62741470336914 9.689648628234863 21.62741470336914 9.290318489074707 L 21.62741470336914 3.096778154373169 C 21.62741470336914 2.697448253631592 21.30254364013672 2.372578144073486 20.90322303771973 2.372578144073486 Z M 6.967743873596191 2.372578144073486 C 6.568413734436035 2.372578144073486 6.243544101715088 2.697448253631592 6.243544101715088 3.096778154373169 L 6.243544101715088 9.290318489074707 C 6.243544101715088 9.689648628234863 6.568413734436035 10.01451778411865 6.967743873596191 10.01451778411865 C 7.367063999176025 10.01451778411865 7.691934108734131 9.689648628234863 7.691934108734131 9.290318489074707 L 7.691934108734131 3.096778154373169 C 7.691934108734131 2.697448253631592 7.367063999176025 2.372578144073486 6.967743873596191 2.372578144073486 Z M 22.50161361694336 6.530648231506348 L 23.17580413818359 6.530648231506348 L 23.17580413818359 5.856448173522949 L 22.50161361694336 5.856448173522949 L 22.50161361694336 6.530648231506348 Z M 10.88871383666992 6.530648231506348 L 16.98225402832031 6.530648231506348 L 16.98225402832031 5.856448173522949 L 10.88871383666992 5.856448173522949 L 10.88871383666992 6.530648231506348 Z M 4.695163726806641 6.530648231506348 L 5.369353771209717 6.530648231506348 L 5.369353771209717 5.856448173522949 L 4.695163726806641 5.856448173522949 L 4.695163726806641 6.530648231506348 Z" stroke="none"/>
            <path d="M 9.290323257446289 -1.9073486328125e-06 C 8.438713073730469 -1.9073486328125e-06 7.741933822631836 0.6967782974243164 7.741933822631836 1.548388481140137 L 7.741933822631836 1.780648231506348 C 7.509674072265625 1.625807762145996 7.238714218139648 1.548388481140137 6.967744827270508 1.548388481140137 C 6.116123199462891 1.548388481140137 5.419353485107422 2.245158195495605 5.419353485107422 3.09677791595459 L 5.419353485107422 5.032258033752441 L 4.258064270019531 5.032258033752441 C 4.02580451965332 5.032258033752441 3.870964050292969 5.187098026275635 3.870964050292969 5.419358253479004 L 3.870964050292969 6.967738151550293 C 3.870964050292969 7.199998378753662 4.02580451965332 7.354838371276855 4.258064270019531 7.354838371276855 L 5.419353485107422 7.354838371276855 L 5.419353485107422 9.290318489074707 C 5.419353485107422 10.14193820953369 6.116123199462891 10.83870792388916 6.967744827270508 10.83870792388916 C 7.238714218139648 10.83870792388916 7.509674072265625 10.76128768920898 7.741933822631836 10.60644817352295 L 7.741933822631836 10.83870792388916 C 7.741933822631836 11.69031810760498 8.438713073730469 12.38709831237793 9.290323257446289 12.38709831237793 C 10.14193344116211 12.38709831237793 10.83870315551758 11.69031810760498 10.83870315551758 10.83870792388916 L 10.83870315551758 7.354838371276855 L 17.03225326538086 7.354838371276855 L 17.03225326538086 10.83870792388916 C 17.03225326538086 11.69031810760498 17.72903442382813 12.38709831237793 18.58064270019531 12.38709831237793 C 19.43225479125977 12.38709831237793 20.1290340423584 11.69031810760498 20.1290340423584 10.83870792388916 L 20.1290340423584 10.60644817352295 C 20.36129379272461 10.76128768920898 20.63225364685059 10.83870792388916 20.90322494506836 10.83870792388916 C 21.75483322143555 10.83870792388916 22.45161437988281 10.14193820953369 22.45161437988281 9.290318489074707 L 22.45161437988281 7.354838371276855 L 23.6129035949707 7.354838371276855 C 23.84516334533691 7.354838371276855 24.00000381469727 7.199998378753662 24.00000381469727 6.967738151550293 L 24.00000381469727 5.419358253479004 C 24.00000381469727 5.187098026275635 23.84516334533691 5.032258033752441 23.6129035949707 5.032258033752441 L 22.45161437988281 5.032258033752441 L 22.45161437988281 3.09677791595459 C 22.45161437988281 2.245158195495605 21.75483322143555 1.548388481140137 20.90322494506836 1.548388481140137 C 20.63225364685059 1.548388481140137 20.36129379272461 1.625807762145996 20.1290340423584 1.780648231506348 L 20.1290340423584 1.548388481140137 C 20.1290340423584 0.6967782974243164 19.43225479125977 -1.9073486328125e-06 18.58064270019531 -1.9073486328125e-06 C 17.72903442382813 -1.9073486328125e-06 17.03225326538086 0.6967782974243164 17.03225326538086 1.548388481140137 L 17.03225326538086 5.032258033752441 L 10.83870315551758 5.032258033752441 L 10.83870315551758 1.548388481140137 C 10.83870315551758 0.6967782974243164 10.14193344116211 -1.9073486328125e-06 9.290323257446289 -1.9073486328125e-06 M 9.290323257446289 11.6128978729248 C 8.864513397216797 11.6128978729248 8.516124725341797 11.26451873779297 8.516124725341797 10.83870792388916 L 8.516124725341797 1.548388481140137 C 8.516124725341797 1.122578620910645 8.864513397216797 0.7741985321044922 9.290323257446289 0.7741985321044922 C 9.716133117675781 0.7741985321044922 10.06451416015625 1.122578620910645 10.06451416015625 1.548388481140137 L 10.06451416015625 10.83870792388916 C 10.06451416015625 11.26451873779297 9.716133117675781 11.6128978729248 9.290323257446289 11.6128978729248 M 18.58064270019531 11.6128978729248 C 18.15483474731445 11.6128978729248 17.80645370483398 11.26451873779297 17.80645370483398 10.83870792388916 L 17.80645370483398 1.548388481140137 C 17.80645370483398 1.122578620910645 18.15483474731445 0.7741985321044922 18.58064270019531 0.7741985321044922 C 19.00645446777344 0.7741985321044922 19.35483360290527 1.122578620910645 19.35483360290527 1.548388481140137 L 19.35483360290527 10.83870792388916 C 19.35483360290527 11.26451873779297 19.00645446777344 11.6128978729248 18.58064270019531 11.6128978729248 M 6.967744827270508 10.06451797485352 C 6.541933059692383 10.06451797485352 6.193544387817383 9.716128349304199 6.193544387817383 9.290318489074707 L 6.193544387817383 3.09677791595459 C 6.193544387817383 2.670968055725098 6.541933059692383 2.322578430175781 6.967744827270508 2.322578430175781 C 7.393543243408203 2.322578430175781 7.741933822631836 2.670968055725098 7.741933822631836 3.09677791595459 L 7.741933822631836 9.290318489074707 C 7.741933822631836 9.716128349304199 7.393543243408203 10.06451797485352 6.967744827270508 10.06451797485352 M 20.90322494506836 10.06451797485352 C 20.47741317749023 10.06451797485352 20.1290340423584 9.716128349304199 20.1290340423584 9.290318489074707 L 20.1290340423584 3.09677791595459 C 20.1290340423584 2.670968055725098 20.47741317749023 2.322578430175781 20.90322494506836 2.322578430175781 C 21.32903289794922 2.322578430175781 21.67741394042969 2.670968055725098 21.67741394042969 3.09677791595459 L 21.67741394042969 9.290318489074707 C 21.67741394042969 9.716128349304199 21.32903289794922 10.06451797485352 20.90322494506836 10.06451797485352 M 5.419353485107422 6.580648422241211 L 4.645164489746094 6.580648422241211 L 4.645164489746094 5.806447982788086 L 5.419353485107422 5.806447982788086 L 5.419353485107422 6.580648422241211 M 17.03225326538086 6.580648422241211 L 10.83870315551758 6.580648422241211 L 10.83870315551758 5.806447982788086 L 17.03225326538086 5.806447982788086 L 17.03225326538086 6.580648422241211 M 23.22580337524414 6.580648422241211 L 22.45161437988281 6.580648422241211 L 22.45161437988281 5.806447982788086 L 23.22580337524414 5.806447982788086 L 23.22580337524414 6.580648422241211 M 9.290323257446289 -0.100001335144043 C 10.19924354553223 -0.100001335144043 10.9387035369873 0.6394586563110352 10.9387035369873 1.548388481140137 L 10.9387035369873 4.932258129119873 L 16.93225479125977 4.932258129119873 L 16.93225479125977 1.548388481140137 C 16.93225479125977 0.6394586563110352 17.67171478271484 -0.100001335144043 18.58064270019531 -0.100001335144043 C 19.48957443237305 -0.100001335144043 20.22903442382813 0.6394586563110352 20.22903442382813 1.548388481140137 L 20.22903442382813 1.606964111328125 C 20.43613052368164 1.502801895141602 20.66604232788086 1.44838809967041 20.90322494506836 1.44838809967041 C 21.81215286254883 1.44838809967041 22.55161285400391 2.187848091125488 22.55161285400391 3.09677791595459 L 22.55161285400391 4.932258129119873 L 23.6129035949707 4.932258129119873 C 23.89970397949219 4.932258129119873 24.10000419616699 5.132558345794678 24.10000419616699 5.419358253479004 L 24.10000419616699 6.967738151550293 C 24.10000419616699 7.254538059234619 23.89970397949219 7.454838275909424 23.6129035949707 7.454838275909424 L 22.55161285400391 7.454838275909424 L 22.55161285400391 9.290318489074707 C 22.55161285400391 10.19924831390381 21.81215286254883 10.93870830535889 20.90322494506836 10.93870830535889 C 20.66604232788086 10.93870830535889 20.43613052368164 10.8842945098877 20.22903442382813 10.78013229370117 L 20.22903442382813 10.83870792388916 C 20.22903442382813 11.74763870239258 19.48957443237305 12.48709774017334 18.58064270019531 12.48709774017334 C 17.67171478271484 12.48709774017334 16.93225479125977 11.74763870239258 16.93225479125977 10.83870792388916 L 16.93225479125977 7.454838275909424 L 10.9387035369873 7.454838275909424 L 10.9387035369873 10.83870792388916 C 10.9387035369873 11.74763870239258 10.19924354553223 12.48709774017334 9.290323257446289 12.48709774017334 C 8.381393432617188 12.48709774017334 7.641933441162109 11.74763870239258 7.641933441162109 10.83870792388916 L 7.641933441162109 10.78013229370117 C 7.434837341308594 10.8842945098877 7.204925537109375 10.93870830535889 6.967744827270508 10.93870830535889 C 6.058813095092773 10.93870830535889 5.319353103637695 10.19924831390381 5.319353103637695 9.290318489074707 L 5.319353103637695 7.454838275909424 L 4.258064270019531 7.454838275909424 C 3.971263885498047 7.454838275909424 3.770963668823242 7.254538059234619 3.770963668823242 6.967738151550293 L 3.770963668823242 5.419358253479004 C 3.770963668823242 5.132558345794678 3.971263885498047 4.932258129119873 4.258064270019531 4.932258129119873 L 5.319353103637695 4.932258129119873 L 5.319353103637695 3.09677791595459 C 5.319353103637695 2.187848091125488 6.058813095092773 1.44838809967041 6.967744827270508 1.44838809967041 C 7.204925537109375 1.44838809967041 7.434837341308594 1.502801895141602 7.641933441162109 1.606964111328125 L 7.641933441162109 1.548388481140137 C 7.641933441162109 0.6394586563110352 8.381393432617188 -0.100001335144043 9.290323257446289 -0.100001335144043 Z M 9.290323257446289 11.51289844512939 C 9.662073135375977 11.51289844512939 9.964513778686523 11.21045780181885 9.964513778686523 10.83870792388916 L 9.964513778686523 1.548388481140137 C 9.964513778686523 1.176638603210449 9.662073135375977 0.8741979598999023 9.290323257446289 0.8741979598999023 C 8.918563842773438 0.8741979598999023 8.616123199462891 1.176638603210449 8.616123199462891 1.548388481140137 L 8.616123199462891 10.83870792388916 C 8.616123199462891 11.21045780181885 8.918563842773438 11.51289844512939 9.290323257446289 11.51289844512939 Z M 18.58064270019531 11.51289844512939 C 18.952392578125 11.51289844512939 19.25483322143555 11.21045780181885 19.25483322143555 10.83870792388916 L 19.25483322143555 1.548388481140137 C 19.25483322143555 1.176638603210449 18.952392578125 0.8741979598999023 18.58064270019531 0.8741979598999023 C 18.20889282226563 0.8741979598999023 17.90645408630371 1.176638603210449 17.90645408630371 1.548388481140137 L 17.90645408630371 10.83870792388916 C 17.90645408630371 11.21045780181885 18.20889282226563 11.51289844512939 18.58064270019531 11.51289844512939 Z M 6.967744827270508 9.964518547058105 C 7.339494705200195 9.964518547058105 7.641933441162109 9.662077903747559 7.641933441162109 9.290318489074707 L 7.641933441162109 3.09677791595459 C 7.641933441162109 2.725018501281738 7.339494705200195 2.422577857971191 6.967744827270508 2.422577857971191 C 6.595983505249023 2.422577857971191 6.293544769287109 2.725018501281738 6.293544769287109 3.09677791595459 L 6.293544769287109 9.290318489074707 C 6.293544769287109 9.662077903747559 6.595983505249023 9.964518547058105 6.967744827270508 9.964518547058105 Z M 20.90322494506836 9.964518547058105 C 21.27497482299805 9.964518547058105 21.57741355895996 9.662077903747559 21.57741355895996 9.290318489074707 L 21.57741355895996 3.09677791595459 C 21.57741355895996 2.725018501281738 21.27497482299805 2.422577857971191 20.90322494506836 2.422577857971191 C 20.53147506713867 2.422577857971191 20.22903442382813 2.725018501281738 20.22903442382813 3.09677791595459 L 20.22903442382813 9.290318489074707 C 20.22903442382813 9.662077903747559 20.53147506713867 9.964518547058105 20.90322494506836 9.964518547058105 Z M 5.319353103637695 5.906448364257813 L 4.74516487121582 5.906448364257813 L 4.74516487121582 6.480648040771484 L 5.319353103637695 6.480648040771484 L 5.319353103637695 5.906448364257813 Z M 16.93225479125977 5.906448364257813 L 10.9387035369873 5.906448364257813 L 10.9387035369873 6.480648040771484 L 16.93225479125977 6.480648040771484 L 16.93225479125977 5.906448364257813 Z M 23.12580490112305 5.906448364257813 L 22.55161285400391 5.906448364257813 L 22.55161285400391 6.480648040771484 L 23.12580490112305 6.480648040771484 L 23.12580490112305 5.906448364257813 Z" stroke="none" fill="#fff"/>
          </g>
        </g>
      </g>
    </g>
  </g>
</svg>
