<svg xmlns="http://www.w3.org/2000/svg" width="20" height="12" viewBox="0 0 20 12">
  <g id="Humburg" transform="translate(-0.286 0.451)">
    <path id="Combined_Shape" data-name="Combined Shape" d="M0,12V10.909H20V12ZM0,6.546V5.455H15.556V6.546ZM0,1.091V0H20V1.091Z" transform="translate(0.286 -0.451)" fill="#fff"/>
  </g>
</svg>
