<svg xmlns="http://www.w3.org/2000/svg" width="26" height="26" viewBox="0 0 26 26">
  <g id="Component_20_1" data-name="Component 20 – 1" opacity="0.54">
    <path id="Path_69" data-name="Path 69" d="M0,0H26V26H0Z" fill="none"/>
    <path id="Path_70" data-name="Path 70" d="M22.9,23H3.1A1.106,1.106,0,0,1,2,21.889V13.541a1.116,1.116,0,0,1,.377-.838L6.4,9.16V4.111A1.106,1.106,0,0,1,7.5,3H22.9A1.106,1.106,0,0,1,24,4.111V21.889A1.106,1.106,0,0,1,22.9,23ZM9.7,20.778H13V14.047L8.6,10.171,4.2,14.047v6.731H7.5V16.333H9.7Zm5.5,0h6.6V5.222H8.6V7.586a1.087,1.087,0,0,1,.723.274l5.5,4.843a1.116,1.116,0,0,1,.377.838Zm2.2-8.889h2.2v2.222H17.4Zm0,4.444h2.2v2.222H17.4Zm0-8.889h2.2V9.667H17.4Zm-4.4,0h2.2V9.667H13Z" transform="translate(0 0)" fill="#fff"/>
  </g>
</svg>
