<svg id="Group_355" data-name="Group 355" xmlns="http://www.w3.org/2000/svg" width="27" height="27" viewBox="0 0 27 27">
  <path id="Path_190" data-name="Path 190" d="M0,0H27V27H0Z" fill="none"/>
  <path id="Path_191" data-name="Path 191" d="M19.813,11a6.75,6.75,0,1,0-13.5,0v9h13.5Zm2.25,9.75.45.6a.562.562,0,0,1-.45.9h-18a.563.563,0,0,1-.45-.9l.45-.6V11a9,9,0,1,1,18,0ZM10.25,23.375h5.625a2.813,2.813,0,1,1-5.625,0Z" transform="translate(0.437 0.25)" fill="#fff"/>
</svg>
