<svg id="Header_Property" data-name="Header / Property" xmlns="http://www.w3.org/2000/svg" width="24" height="24" viewBox="0 0 24 24">
  <g id="Property_Icon" data-name="Property Icon">
    <rect id="Rectangle" width="24" height="24" rx="4" fill="none"/>
    <path id="Combined_Shape" data-name="Combined Shape" d="M16.318,16.98c-3.063,0-6.114,0-8.695,0H.563a.525.525,0,0,1-.552-.442A.654.654,0,0,1,0,16.409V13.887c0-1.964,0-4,0-6a.605.605,0,0,1,.164-.441.61.61,0,0,1,.444-.166H.614c.341,0,.7,0,1.137,0l1.024,0h.931V7.114q0-3.262,0-6.523A.541.541,0,0,1,4.142.01.449.449,0,0,1,4.236,0h6.736a.522.522,0,0,1,.556.419.571.571,0,0,1,.012.126V1c0,.893,0,1.815,0,2.723a.175.175,0,0,0,.118.188c.369.176.743.359,1.1.536l.536.263,1.23.6.053.026,1.284.622.314.154c.155.076.311.155.468.228a.546.546,0,0,1,.332.542c0,.856,0,1.727,0,2.569v.65q0,.818,0,1.638c0,1.5,0,3.058,0,4.587a.6.6,0,0,1-.663.66Zm-15.5-.807H6.491c.144,0,.144,0,.144-.142V8.1H.815Zm10.726-11.3v.7c0,.684,0,1.391,0,2.087a.438.438,0,0,1-.25.419l-1.759.935-.006,0c-.661.351-1.345.714-2.018,1.068a.118.118,0,0,0-.071.123q0,2.2,0,4.39v1.463c0,.022,0,.045,0,.068l0,.047h8.731v-.147q0-2.746,0-5.492V9.842c0-.892,0-1.814,0-2.722a.151.151,0,0,0-.1-.164c-.124-.054-.248-.114-.367-.174l-.1-.05L14.115,6l-1.5-.729-.481-.237-.49-.24a.419.419,0,0,0-.06-.025l-.046-.019Zm-4.1,2.877c0,.293,0,.586,0,.878v.571l.038-.016a.679.679,0,0,0,.071-.032L7.825,9c.122-.066.244-.132.366-.2l.532-.283C9.352,8.181,10,7.835,10.644,7.5a.154.154,0,0,0,.094-.164q0-2.255,0-4.51V.812H4.518V7.285h.24l2.22,0A.42.42,0,0,1,7.439,7.745Zm6.106,6.908c-.018,0-.035,0-.062-.005V13.483h1.748a.392.392,0,0,1,.009.06c0,.346,0,.691,0,1.037,0,.055-.02.076-.092.076C14.614,14.654,14.08,14.655,13.545,14.654Zm-4.752,0V13.483h1.759v1.173Zm-5.862,0V13.483H4.1v1.173ZM5.185,12.31c-.146,0-.292,0-.437,0-.187,0-.375,0-.562,0-.028,0-.08-.042-.08-.066,0-.358,0-.716,0-1.075,0-.006.007-.013.015-.028H5.273V11.8c0,.138,0,.276,0,.414,0,.067-.015.1-.088.1Zm-3.426,0V11.138H2.931V12.31Zm11.786-.586a.5.5,0,0,1-.061-.008V10.552h1.758v.354c0,.247,0,.493,0,.739,0,.048,0,.08-.085.08C14.62,11.722,14.081,11.724,13.544,11.724Zm-2.345,0c-.017,0-.034,0-.062-.006V10.552h1.743a.286.286,0,0,1,.013.055c0,.347,0,.7,0,1.043,0,.054-.02.075-.092.075C12.27,11.722,11.735,11.723,11.2,11.722Zm-2.407,0V10.552h1.759v1.173ZM4.1,10.552V9.38H5.276v1.172Zm-2.345,0V9.38H2.931v1.172ZM13.483,9.28c.005-.326,0-.652,0-.977v-.1h1.757V9.37c-.033,0-.068.006-.1.006-.509,0-1.019,0-1.528,0C13.514,9.38,13.481,9.362,13.483,9.28ZM8.207,6.449V5.276H9.379V6.449Zm-1.759,0V5.276H7.62V6.449ZM8.207,4.1V2.931H9.379V4.012c0,.048,0,.092-.068.092Zm-1.663,0c-.05,0-.1,0-.1-.073,0-.353,0-.706,0-1.058a.2.2,0,0,1,.013-.04H7.61c0,.029.008.056.008.082,0,.332,0,.664,0,1,0,.074-.024.095-.095.095C7.2,4.1,6.872,4.1,6.544,4.1Z" transform="translate(4 4)" fill="#fff"/>
  </g>
</svg>
