<svg id="Component_1_15" data-name="Component 1 – 15" xmlns="http://www.w3.org/2000/svg" width="32" height="32" viewBox="0 0 32 32">
  <path id="Path_10" data-name="Path 10" d="M0,0H32V32H0Z" fill="none"/>
  <path id="Path_11" data-name="Path 11" d="M21.778,25v3H5.889V25ZM29,14.5v3H3v-3ZM26.111,4V7H10.222V4Z" transform="translate(0)" fill="#fff"/>
</svg>
