<svg id="Group_161" data-name="Group 161" xmlns="http://www.w3.org/2000/svg" width="28" height="28" viewBox="0 0 28 28">
  <path id="Path_98" data-name="Path 98" d="M0,0H28V28H0Z" fill="none"/>
  <path id="Path_99" data-name="Path 99" d="M4,25.5a9.333,9.333,0,1,1,18.667,0H20.333a7,7,0,1,0-14,0ZM13.333,15a7,7,0,1,1,7-7A7,7,0,0,1,13.333,15Zm0-2.333A4.667,4.667,0,1,0,8.667,8,4.665,4.665,0,0,0,13.333,12.667Z" transform="translate(0.667 0.167)" fill="#fff"/>
</svg>
