<svg id="Component_23_1" data-name="Component 23 – 1" xmlns="http://www.w3.org/2000/svg" width="17" height="17" viewBox="0 0 17 17">
  <path id="Path_100" data-name="Path 100" d="M0,0H17V17H0Z" fill="none"/>
  <path id="Path_101" data-name="Path 101" d="M2.65,3h11.7a.631.631,0,0,1,.65.611v9.778a.631.631,0,0,1-.65.611H2.65A.631.631,0,0,1,2,13.389V3.611A.631.631,0,0,1,2.65,3ZM13.7,5.59,8.547,9.929,3.3,5.576v7.2H13.7ZM3.632,4.222,8.54,8.293l4.837-4.071Z" fill="#a38e5d"/>
</svg>
