<svg id="Component_17_6" data-name="Component 17 – 6" xmlns="http://www.w3.org/2000/svg" width="17" height="17" viewBox="0 0 17 17">
  <path id="Path_62" data-name="Path 62" d="M0,0H17V17H0Z" fill="none"/>
  <path id="Path_63" data-name="Path 63" d="M6.89,7.695A6.451,6.451,0,0,0,9.305,10.11l.54-.757a.611.611,0,0,1,.791-.181,6.98,6.98,0,0,0,2.8.834.611.611,0,0,1,.563.609v2.727a.611.611,0,0,1-.549.608,9.478,9.478,0,0,1-10.4-10.4A.611.611,0,0,1,3.658,3H6.385a.611.611,0,0,1,.609.563,6.98,6.98,0,0,0,.834,2.8.611.611,0,0,1-.181.791l-.757.54Zm-1.541-.4L6.51,6.464a8.2,8.2,0,0,1-.67-2.242H4.228c0,.1-.005.2-.005.306a8.249,8.249,0,0,0,8.249,8.25c.1,0,.2,0,.306-.006V11.16a8.2,8.2,0,0,1-2.242-.67l-.829,1.161a7.6,7.6,0,0,1-.97-.458l-.035-.02A7.673,7.673,0,0,1,5.828,8.3l-.02-.035a7.6,7.6,0,0,1-.458-.97Z" fill="#a38e5d"/>
</svg>
